{
    "antifeatures": {
        "Ads": "دا کاریال انګروزي لري",
        "DisabledAlgorithm": "دا کاریال د خونديتوب بې توغه لاسليک لري",
        "NoSourceSince": "سرچينې کوډ نور شتون نه لري، اوسمهالیزونې شونې نه دي",
        "NonFreeAdd": "دا کاریال ناازاده پر-زیاتوونې پر مخوړي",
        "NonFreeAssets": "دا کاریال ناازاده پانګې لري",
        "NonFreeDep": "دا کاریال په نورو ناازاده کاریالونو باندې اړ دی",
        "NonFreeNet": "دا کاریال د جالونو ناازادې پالنې پر مخوړي",
        "Tracking": "دا کاریال ستاسې د چارندتیا پلنيوی او راپورونه کوي",
        "UpstreamNonFree": "د سرچينې برلاسی کوډ په بشپړه توګه ازاده نه دی"
    },
    "app_categories": {
        "Connectivity": "پیوستیا",
        "Development": "پرمختيا",
        "Games": "لوبې",
        "Graphics": "كښنيزونې",
        "Internet": "انټرنېټ",
        "Money": "پيسې",
        "Multimedia": "ګڼرسنۍ",
        "Navigation": "چلونه",
        "Phone & SMS": "لرغږون او استوزه",
        "Reading": "لوستل",
        "Science & Education": "ساینس او زده کړه",
        "Security": "خونديتوب",
        "Sports & Health": "کړاو او روغتیا",
        "System": "غونډال",
        "Theming": "ويينه",
        "Time": "مهال",
        "Writing": "ليكل",
        "show_all_packages": "د ټولو d% بنډلونو ښودل"
    },
    "index": {
        "download_fdroid": "اېف-ډروېډ رالېښل",
        "gpg_signature": "پي.جي.پي لاسليک",
        "title": "اېف-ډروېډ څه شئ دی؟"
    },
    "navigation": {
        "about": "په اړه",
        "apps": "کاریالونه",
        "contribute": "برخه اخیستل",
        "documentation": "لاسوندونه",
        "edit_on_gitlab": "پر ګېټ لاب باندې سمول",
        "issues": "ربړې",
        "news": "خبرونه",
        "translate_on_weblate": "پر وېبلېټ ژباړل"
    },
    "package": {
        "added_on": "زیات شوی په {{ package_added_date }}",
        "anti_features_warning": "دا کاریال داسې ځانګړنې لري چې تاسې يې ښايي چې خوښې نه کړئ.",
        "author": "ليكوال",
        "build_metadata": "د جوړښت پېژن اومتوک",
        "download": "د {{ file_extension }} رالېښل",
        "flattr": "Flattr",
        "gpg_signature": "پي.جي.پي لاسليک",
        "issue_tracker": "ربړه پلنيوى",
        "liberapay": "لېبراپې",
        "license": "هوکليک",
        "minimum_android_version": "دا بڼه انډروېډ {{ android_version }} یا لا نوي ته اړتیا لري.",
        "new_in_version": "نوي په بڼه {{ latest_version }} کښې",
        "opencollective": "اوپن کلېکټيو",
        "package_icon_alt": "بنډل انځورن",
        "packages": "بنډلونه",
        "permissions": "پرېښلې",
        "signed_by_developer": "دا آر پراخندوی جوړ او لاسليک کړی دئ.",
        "source_code": "سرچينې كوډ",
        "technical_info": "تخنیکي خبرتیا",
        "translation": "ژباړه",
        "version_info": "<b>بڼه {{ package_version }}</b> ‭‭‭({{ package_version_code }})",
        "website": "ګورتځی"
    },
    "permissions": {
        "permdesc_setTimeZone": "کاریال ته پرېښله ورکوي تر څو د لرغږون مهال سيمې ته بدلون ورکړي.",
        "permdesc_setWallpaper": "کاریال ته پرېښله ورکوي تر څو د غونډال دېوالپاڼې امستل وکړي.",
        "permdesc_setWallpaperHints": "کاریال ته پرېښله ورکوي تر څو د غونډال د دېوالپاڼې کچ ټکو امستل وکړي.",
        "permdesc_sim_communication": "کاریال ته پرېښله ورکوي تر څو سېم کارډ ته بولۍ ورکړي. دا ډېر ناخوندي کار دی.",
        "permlab_removeDrmCertificates": "DRM منښتلیکونه لېرې کول"
    },
    "sidebars": {
        "donate": {
            "via_bank_transfer": "بانکي لېږد"
        },
        "lang": {
            "change": "بدلول"
        },
        "last_updated": {
            "heading": "وروستى اوسمهالول شوی"
        },
        "latest_packages": {
            "heading": "وروستي کاریالونه"
        },
        "news": {
            "heading": "خبرونه"
        },
        "search": {
            "heading": "کاریالونو موندل",
            "noscript": "د جاواسکرېپټ چارندولو ته اړتیا لري",
            "search": "لټون"
        }
    }
}
